Measuring the Middle
…
quartets$x_cord <- quartets$x # R did not like the variables named x or y since those are also used in command. Renamed variables to avoid issues.
quartets$y_cord <- quartets$y
quartets_wide <-pivot_wider(quartets, names_from = group,
              values_from = c(x_cord, y_cord)) 

write.csv(quartets_wide, "quartets_wide.csv")

quartets_wide

## # A tibble: 44 x 10
##        x     y `x_cord_Quartet 1` `x_cord_Quartet 2` `x_cord_Quartet 3`
##    <dbl> <dbl>              <dbl>              <dbl>              <dbl>
##  1    10  8.04                 10                 NA                 NA
##  2     8  6.95                  8                 NA                 NA
##  3    13  7.58                 13                 NA                 NA
##  4     9  8.81                  9                 NA                 NA
##  5    11  8.33                 11                 NA                 NA
##  6    14  9.96                 14                 NA                 NA
##  7     6  7.24                  6                 NA                 NA
##  8     4  4.26                  4                 NA                 NA
##  9    12 10.8                  12                 NA                 NA
## 10     7  4.82                  7                 NA                 NA
## # ... with 34 more rows, and 5 more variables: x_cord_Quartet 4 <dbl>,
## #   y_cord_Quartet 1 <dbl>, y_cord_Quartet 2 <dbl>, y_cord_Quartet 3 <dbl>,
## #   y_cord_Quartet 4 <dbl>
…
