Week 11
…
[Full list of geom_ functions can be found here](https://ggplot2.tidyverse.org/reference/)

---
# data

We are going to use the **election_turnout** dataset from the **stevedata** package.

```r
#install.packages("stevedata")
library(stevedata)
election_turnout
```

```
# A tibble: 51 x 14
    year state region division turnoutho perhsed percoled gdppercap    ss trumpw
   <dbl> <chr> <chr>  <chr>        <dbl>   <dbl>    <dbl>     <int> <int>  <int>
 1  2016 Alab~ South  East So~      59      84.3     23.5     42663     0      1
 2  2016 Alas~ West   Pacific       61.3    92.1     28       81801     0      1
 3  2016 Ariz~ West   Mountain      55      86       27.5     43269     0      1
 4  2016 Arka~ South  West So~      52.8    84.8     21.1     41129     0      1
 5  2016 Cali~ West   Pacific       56.7    81.8     31.4     61924     0      0
 6  2016 Colo~ West   Mountain      70.1    90.7     38.1     58009     1      0
 7  2016 Conn~ North~ New Eng~      65.2    89.9     37.6     72331     0      0
 8  2016 Dela~ South  South A~      64.4    88.4     30       69930     0      0
 9  2016 Dist~ South  South A~      60.9    89.3     54.6    181185     0      0
10  2016 Flor~ South  South A~      64.6    86.9     27.3     42595     1      1
# ... with 41 more rows, and 4 more variables: trumpshare <dbl>, sunempr <dbl>,
#   sunempr12md <dbl>, gdp <dbl>
```
…
