Lesson Plans
…
x

## # A tibble: 28,342 x 38
## # Groups:   id [56]
##    id     date       vaccines tests confirmed recovered deaths  hosp  vent   icu
##    <chr>  <date>        <dbl> <dbl>     <dbl>     <int>  <int> <dbl> <int> <int>
##  1 121cd~ 2020-01-01       NA    NA        NA        NA     NA    NA    NA    NA
##  2 121cd~ 2020-01-02       NA    NA        NA        NA     NA    NA    NA    NA
##  3 121cd~ 2020-01-03       NA    NA        NA        NA     NA    NA    NA    NA
##  4 121cd~ 2020-01-04       NA    NA        NA        NA     NA    NA    NA    NA
##  5 121cd~ 2020-01-05       NA    NA        NA        NA     NA    NA    NA    NA
##  6 121cd~ 2020-01-06       NA    NA        NA        NA     NA    NA    NA    NA
##  7 121cd~ 2020-01-07       NA    NA        NA        NA     NA    NA    NA    NA
##  8 121cd~ 2020-01-08       NA    NA        NA        NA     NA    NA    NA    NA
##  9 121cd~ 2020-01-09       NA    NA        NA        NA     NA    NA    NA    NA
## 10 121cd~ 2020-01-10       NA    NA        NA        NA     NA    NA    NA    NA
## # ... with 28,332 more rows, and 28 more variables: population <dbl>,
## #   school_closing <int>, workplace_closing <int>, cancel_events <int>,
## #   gatherings_restrictions <int>, transport_closing <int>,
## #   stay_home_restrictions <int>, internal_movement_restrictions <int>,
## #   international_movement_restrictions <int>, information_campaigns <int>,
## #   testing_policy <int>, contact_tracing <int>, stringency_index <dbl>,
## #   iso_alpha_3 <chr>, iso_alpha_2 <chr>, iso_numeric <int>, currency <chr>,
## #   administrative_area_level <int>, administrative_area_level_1 <chr>,
## #   administrative_area_level_2 <chr>, administrative_area_level_3 <lgl>,
…
Descriptive Statistics

CORREL() and PEARSON() are the same in excel

Desc() from DescTools

Save and SaveAs is write_csv()

MAX(), MIN(), AVERAGE(), COUNT() STDEV.S() for samples & STDEV.P() for populations MAX() - MIN() gives you the range

Visualizing Distributions

diamonds # default dataset included in package

## # A tibble: 53,940 x 10
##    carat cut       color clarity depth table price     x     y     z
##    <dbl> <ord>     <ord> <ord>   <dbl> <dbl> <int> <dbl> <dbl> <dbl>
##  1  0.23 Ideal     E     SI2      61.5    55   326  3.95  3.98  2.43
##  2  0.21 Premium   E     SI1      59.8    61   326  3.89  3.84  2.31
##  3  0.23 Good      E     VS1      56.9    65   327  4.05  4.07  2.31
##  4  0.29 Premium   I     VS2      62.4    58   334  4.2   4.23  2.63
##  5  0.31 Good      J     SI2      63.3    58   335  4.34  4.35  2.75
##  6  0.24 Very Good J     VVS2     62.8    57   336  3.94  3.96  2.48
##  7  0.24 Very Good I     VVS1     62.3    57   336  3.95  3.98  2.47
##  8  0.26 Very Good H     SI1      61.9    55   337  4.07  4.11  2.53
##  9  0.22 Fair      E     VS2      65.1    61   337  3.87  3.78  2.49
## 10  0.23 Very Good H     VS1      59.4    61   338  4     4.05  2.39
## # ... with 53,930 more rows
…
